{
  "project_info": {
    "project_number": "312738230606",
    "project_id": "pagadoresv2",
    "storage_bucket": "pagadoresv2.appspot.com"
  },
  "client": [
    {
      "client_info": {
        "mobilesdk_app_id": "1:312738230606:android:f920ad0bffe4e9e669ee1f",
        "android_client_info": {
          "package_name": "com.pagadoresv2.push"
        }
      },
      "oauth_client": [
        {
          "client_id": "312738230606-49ol0cq8104njcn66ep36gn0a2lobdfi.apps.googleusercontent.com",
          "client_type": 3
        }
      ],
      "api_key": [
        {
          "current_key": "AIzaSyA0-ROgfdv6JafaXB9AT_Ngksg1bUz0Azs"
        }
      ],
      "services": {
        "appinvite_service": {
          "other_platform_oauth_client": [
            {
              "client_id": "312738230606-49ol0cq8104njcn66ep36gn0a2lobdfi.apps.googleusercontent.com",
              "client_type": 3
            }
          ]
        }
      }
    }
  ],
  "configuration_version": "1"
}