{
  "prepare_queue": {
    "installed": [],
    "uninstalled": []
  },
  "config_munge": {
    "files": {}
  },
  "installed_plugins": {
    "cordova-plugin-camera": {
      "PACKAGE_NAME": "com.pagadoresv2.push"
    },
    "cordova-plugin-contacts": {
      "PACKAGE_NAME": "com.pagadoresv2.push"
    },
    "cordova-plugin-crop": {
      "PACKAGE_NAME": "com.pagadoresv2.push"
    },
    "cordova-plugin-device": {
      "PACKAGE_NAME": "com.pagadoresv2.push"
    },
    "cordova-plugin-email-composer": {
      "PACKAGE_NAME": "com.pagadoresv2.push"
    },
    "cordova-plugin-facebook4": {
      "APP_ID": "286856509286694",
      "APP_NAME": "com.pagadoresv2.push",
      "FACEBOOK_HYBRID_APP_EVENTS": "false",
      "FACEBOOK_ANDROID_SDK_VERSION": "5.13.0",
      "PACKAGE_NAME": "com.pagadoresv2.push"
    },
    "cordova-plugin-file": {
      "PACKAGE_NAME": "com.pagadoresv2.push"
    },
    "cordova-plugin-googleplus": {
      "WEB_APPLICATION_CLIENT_ID": "312738230606-49ol0cq8104njcn66ep36gn0a2lobdfi.apps.googleusercontent.com",
      "PACKAGE_NAME": "com.pagadoresv2.push"
    },
    "cordova-plugin-inappbrowser": {
      "PACKAGE_NAME": "com.pagadoresv2.push"
    },
    "cordova-plugin-ionic-keyboard": {
      "PACKAGE_NAME": "com.pagadoresv2.push"
    },
    "cordova-plugin-ionic-webview": {
      "PACKAGE_NAME": "com.pagadoresv2.push"
    },
    "cordova-plugin-iroot": {
      "PACKAGE_NAME": "com.pagadoresv2.push"
    },
    "cordova-plugin-proguard": {
      "PACKAGE_NAME": "com.pagadoresv2.push"
    },
    "cordova-plugin-splashscreen": {
      "PACKAGE_NAME": "com.pagadoresv2.push"
    },
    "cordova-plugin-statusbar": {
      "PACKAGE_NAME": "com.pagadoresv2.push"
    },
    "cordova-plugin-whitelist": {
      "PACKAGE_NAME": "com.pagadoresv2.push"
    },
    "cordova-plugin-x-socialsharing": {
      "PACKAGE_NAME": "com.pagadoresv2.push"
    },
    "phonegap-plugin-push": {
      "PACKAGE_NAME": "com.pagadoresv2.push"
    },
    "credoappsdk-plugin": {
      "PACKAGE_NAME": "com.pagadoresv2.push"
    },
    "cordova-plugin-uniquedeviceid": {
      "PACKAGE_NAME": "com.pagadoresv2.push"
    },
    "cordova-plugin-advanced-http": {
      "ANDROIDBLACKLISTSECURESOCKETPROTOCOLS": "SSLv3,TLSv1",
      "PACKAGE_NAME": "com.pagadoresv2.push"
    }
  },
  "dependent_plugins": {
    "es6-promise-plugin": {
      "PACKAGE_NAME": "com.pagadoresv2.push"
    },
    "cordova-support-google-services": {
      "PACKAGE_NAME": "com.pagadoresv2.push"
    },
    "phonegap-plugin-multidex": {
      "PACKAGE_NAME": "com.pagadoresv2.push"
    }
  }
}
